[
    {
        "requirements": [
            {
                "shortName": "str",
                "value": 50
            }
        ],
        "modifiers": [
            {
                "shortName": "for",
                "value": 17,
                "type": "armor"
            },
            {
                "shortName": "prc",
                "value": 17,
                "type": "armor"
            },
            {
                "shortName": "fir",
                "value": 30,
                "type": "armor"
            },
            {
                "shortName": "enr",
                "value": 30,
                "type": "armor"
            },
            {
                "shortName": "xra",
                "value": 27,
                "type": "armor"
            },
            {
                "shortName": "por",
                "value": 27,
                "type": "armor"
            }
        ],
        "type": "belts",
        "name": "Zargerus Belt of Protection",
        "tl": 50
    },
    {
        "requirements": [
            {
                "shortName": "str",
                "value": 7
            }
        ],
        "modifiers": [
            {
                "shortName": "for",
                "value": 19,
                "type": "armor"
            },
            {
                "shortName": "prc",
                "value": 13,
                "type": "armor"
            },
            {
                "shortName": "fir",
                "value": 16,
                "type": "armor"
            },
            {
                "shortName": "por",
                "value": 28,
                "type": "armor"
            }
        ],
        "type": "belts",
        "name": "Light Kevlar Belt",
        "tl": 7
    },
    {
        "requirements": [
            {
                "shortName": "str",
                "value": 19
            }
        ],
        "modifiers": [
            {
                "shortName": "for",
                "value": 24,
                "type": "armor"
            },
            {
                "shortName": "prc",
                "value": 14,
                "type": "armor"
            },
            {
                "shortName": "fir",
                "value": 20,
                "type": "armor"
            },
            {
                "shortName": "por",
                "value": 36,
                "type": "armor"
            }
        ],
        "type": "belts",
        "name": "Medium Kevlar Belt",
        "tl": 19
    },
    {
        "requirements": [
            {
                "shortName": "str",
                "value": 31
            }
        ],
        "modifiers": [
            {
                "shortName": "for",
                "value": 29,
                "type": "armor"
            },
            {
                "shortName": "prc",
                "value": 19,
                "type": "armor"
            },
            {
                "shortName": "fir",
                "value": 24,
                "type": "armor"
            },
            {
                "shortName": "por",
                "value": 43,
                "type": "armor"
            }
        ],
        "type": "belts",
        "name": "Heavy Kevlar Belt",
        "tl": 31
    },
    {
        "requirements": [
            {
                "shortName": "str",
                "value": 12
            }
        ],
        "modifiers": [
            {
                "shortName": "for",
                "value": 48,
                "type": "armor"
            },
            {
                "shortName": "prc",
                "value": 34,
                "type": "armor"
            },
            {
                "shortName": "fir",
                "value": 18,
                "type": "armor"
            }
        ],
        "type": "belts",
        "name": "Battle Belt Prototype",
        "tl": 12
    },
    {
        "requirements": [
            {
                "shortName": "str",
                "value": 22
            }
        ],
        "modifiers": [
            {
                "shortName": "for",
                "value": 58,
                "type": "armor"
            },
            {
                "shortName": "prc",
                "value": 40,
                "type": "armor"
            },
            {
                "shortName": "fir",
                "value": 22,
                "type": "armor"
            }
        ],
        "type": "belts",
        "name": "Usual Battle Belt",
        "tl": 22
    },
    {
        "requirements": [
            {
                "shortName": "str",
                "value": 32
            }
        ],
        "modifiers": [
            {
                "shortName": "for",
                "value": 68,
                "type": "armor"
            },
            {
                "shortName": "prc",
                "value": 47,
                "type": "armor"
            },
            {
                "shortName": "fir",
                "value": 25,
                "type": "armor"
            }
        ],
        "type": "belts",
        "name": "Advanced Battle Belt",
        "tl": 32
    },
    {
        "requirements": [
            {
                "shortName": "str",
                "value": 38
            }
        ],
        "modifiers": [
            {
                "shortName": "for",
                "value": 42,
                "type": "armor"
            },
            {
                "shortName": "prc",
                "value": 53,
                "type": "armor"
            },
            {
                "shortName": "por",
                "value": 28,
                "type": "armor"
            }
        ],
        "type": "belts",
        "name": "Shabby Carbon Belt",
        "tl": 38
    },
    {
        "requirements": [
            {
                "shortName": "str",
                "value": 46
            }
        ],
        "modifiers": [
            {
                "shortName": "for",
                "value": 46,
                "type": "armor"
            },
            {
                "shortName": "prc",
                "value": 57,
                "type": "armor"
            },
            {
                "shortName": "por",
                "value": 30,
                "type": "armor"
            }
        ],
        "type": "belts",
        "name": "Good Carbon Belt",
        "tl": 46
    },
    {
        "requirements": [
            {
                "shortName": "str",
                "value": 54
            }
        ],
        "modifiers": [
            {
                "shortName": "for",
                "value": 51,
                "type": "armor"
            },
            {
                "shortName": "prc",
                "value": 62,
                "type": "armor"
            },
            {
                "shortName": "por",
                "value": 34,
                "type": "armor"
            }
        ],
        "type": "belts",
        "name": "Great Carbon Belt",
        "tl": 54
    },
    {
        "requirements": [
            {
                "shortName": "str",
                "value": 64
            }
        ],
        "modifiers": [
            {
                "shortName": "for",
                "value": 56,
                "type": "armor"
            },
            {
                "shortName": "prc",
                "value": 69,
                "type": "armor"
            },
            {
                "shortName": "por",
                "value": 36,
                "type": "armor"
            }
        ],
        "type": "belts",
        "name": "Outstanding Carbon Belt",
        "tl": 64
    },
    {
        "requirements": [
            {
                "shortName": "str",
                "value": 65
            }
        ],
        "modifiers": [
            {
                "shortName": "for",
                "value": 65,
                "type": "armor"
            },
            {
                "shortName": "prc",
                "value": 50,
                "type": "armor"
            },
            {
                "shortName": "enr",
                "value": 50,
                "type": "armor"
            }
        ],
        "type": "belts",
        "name": "Bad Duranium Belt",
        "tl": 65
    },
    {
        "requirements": [
            {
                "shortName": "str",
                "value": 75
            }
        ],
        "modifiers": [
            {
                "shortName": "for",
                "value": 72,
                "type": "armor"
            },
            {
                "shortName": "prc",
                "value": 55,
                "type": "armor"
            },
            {
                "shortName": "enr",
                "value": 55,
                "type": "armor"
            }
        ],
        "type": "belts",
        "name": "Duranium Belt",
        "tl": 75
    },
    {
        "requirements": [
            {
                "shortName": "str",
                "value": 80
            }
        ],
        "modifiers": [
            {
                "shortName": "for",
                "value": 75,
                "type": "armor"
            },
            {
                "shortName": "prc",
                "value": 57,
                "type": "armor"
            },
            {
                "shortName": "enr",
                "value": 57,
                "type": "armor"
            }
        ],
        "type": "belts",
        "name": "Advanced Duranium Belt",
        "tl": 80
    },
    {
        "requirements": [
            {
                "shortName": "str",
                "value": 85
            }
        ],
        "modifiers": [
            {
                "shortName": "for",
                "value": 78,
                "type": "armor"
            },
            {
                "shortName": "prc",
                "value": 60,
                "type": "armor"
            },
            {
                "shortName": "enr",
                "value": 60,
                "type": "armor"
            }
        ],
        "type": "belts",
        "name": "High Density Duranium Belt",
        "tl": 85
    },
    {
        "requirements": [
            {
                "shortName": "str",
                "value": 39
            }
        ],
        "modifiers": [
            {
                "shortName": "for",
                "value": 34,
                "type": "armor"
            },
            {
                "shortName": "prc",
                "value": 34,
                "type": "armor"
            },
            {
                "shortName": "fir",
                "value": 64,
                "type": "armor"
            }
        ],
        "type": "belts",
        "name": "Unhallowed Inquisition Belt",
        "tl": 39
    },
    {
        "requirements": [
            {
                "shortName": "str",
                "value": 47
            }
        ],
        "modifiers": [
            {
                "shortName": "for",
                "value": 37,
                "type": "armor"
            },
            {
                "shortName": "prc",
                "value": 37,
                "type": "armor"
            },
            {
                "shortName": "fir",
                "value": 70,
                "type": "armor"
            }
        ],
        "type": "belts",
        "name": "Inquisition Belt",
        "tl": 47
    },
    {
        "requirements": [
            {
                "shortName": "str",
                "value": 55
            }
        ],
        "modifiers": [
            {
                "shortName": "for",
                "value": 40,
                "type": "armor"
            },
            {
                "shortName": "prc",
                "value": 40,
                "type": "armor"
            },
            {
                "shortName": "fir",
                "value": 77,
                "type": "armor"
            }
        ],
        "type": "belts",
        "name": "Holy Inquisition Belt",
        "tl": 55
    },
    {
        "requirements": [
            {
                "shortName": "str",
                "value": 67
            }
        ],
        "modifiers": [
            {
                "shortName": "for",
                "value": 45,
                "type": "armor"
            },
            {
                "shortName": "prc",
                "value": 45,
                "type": "armor"
            },
            {
                "shortName": "fir",
                "value": 87,
                "type": "armor"
            }
        ],
        "type": "belts",
        "name": "Gods Wish' Inquisition Belt",
        "tl": 67
    },
    {
        "requirements": [
            {
                "shortName": "str",
                "value": 65
            }
        ],
        "modifiers": [
            {
                "shortName": "for",
                "value": 46,
                "type": "armor"
            },
            {
                "shortName": "por",
                "value": 103,
                "type": "armor"
            }
        ],
        "type": "belts",
        "name": "Medium Poison Protection Belt",
        "tl": 65
    },
    {
        "requirements": [
            {
                "shortName": "str",
                "value": 5
            }
        ],
        "modifiers": [
            {
                "shortName": "for",
                "value": 16,
                "type": "armor"
            },
            {
                "shortName": "fir",
                "value": 16,
                "type": "armor"
            },
            {
                "shortName": "enr",
                "value": 27,
                "type": "armor"
            },
            {
                "shortName": "xra",
                "value": 16,
                "type": "armor"
            }
        ],
        "type": "belts",
        "name": "Light Energyfield Belt",
        "tl": 5
    },
    {
        "requirements": [
            {
                "shortName": "str",
                "value": 14
            }
        ],
        "modifiers": [
            {
                "shortName": "for",
                "value": 18,
                "type": "armor"
            },
            {
                "shortName": "fir",
                "value": 18,
                "type": "armor"
            },
            {
                "shortName": "enr",
                "value": 31,
                "type": "armor"
            },
            {
                "shortName": "xra",
                "value": 18,
                "type": "armor"
            }
        ],
        "type": "belts",
        "name": "Medium Energyfield Belt",
        "tl": 14
    },
    {
        "requirements": [
            {
                "shortName": "str",
                "value": 21
            }
        ],
        "modifiers": [
            {
                "shortName": "for",
                "value": 20,
                "type": "armor"
            },
            {
                "shortName": "fir",
                "value": 20,
                "type": "armor"
            },
            {
                "shortName": "enr",
                "value": 35,
                "type": "armor"
            },
            {
                "shortName": "xra",
                "value": 20,
                "type": "armor"
            }
        ],
        "type": "belts",
        "name": "Heavy Energyfield Belt",
        "tl": 21
    },
    {
        "requirements": [
            {
                "shortName": "str",
                "value": 48
            }
        ],
        "modifiers": [
            {
                "shortName": "for",
                "value": 86,
                "type": "armor"
            },
            {
                "shortName": "prc",
                "value": 39,
                "type": "armor"
            }
        ],
        "type": "belts",
        "name": "Light Deflector Belt ",
        "tl": 48
    },
    {
        "requirements": [
            {
                "shortName": "str",
                "value": 68
            }
        ],
        "modifiers": [
            {
                "shortName": "for",
                "value": 106,
                "type": "armor"
            },
            {
                "shortName": "prc",
                "value": 48,
                "type": "armor"
            }
        ],
        "type": "belts",
        "name": "Medium Deflector Belt",
        "tl": 68
    },
    {
        "requirements": [
            {
                "shortName": "str",
                "value": 88
            }
        ],
        "modifiers": [
            {
                "shortName": "for",
                "value": 126,
                "type": "armor"
            },
            {
                "shortName": "prc",
                "value": 56,
                "type": "armor"
            }
        ],
        "type": "belts",
        "name": "Heavy Deflector Belt",
        "tl": 88
    },
    {
        "requirements": [
            {
                "shortName": "str",
                "value": 44
            }
        ],
        "modifiers": [
            {
                "shortName": "for",
                "value": 37,
                "type": "armor"
            },
            {
                "shortName": "enr",
                "value": 82,
                "type": "armor"
            }
        ],
        "type": "belts",
        "name": "Light Energy Protection Belt ",
        "tl": 44
    },
    {
        "requirements": [
            {
                "shortName": "str",
                "value": 64
            }
        ],
        "modifiers": [
            {
                "shortName": "for",
                "value": 46,
                "type": "armor"
            },
            {
                "shortName": "enr",
                "value": 102,
                "type": "armor"
            }
        ],
        "type": "belts",
        "name": "Medium Energy Protection Belt",
        "tl": 64
    },
    {
        "requirements": [
            {
                "shortName": "str",
                "value": 84
            }
        ],
        "modifiers": [
            {
                "shortName": "for",
                "value": 54,
                "type": "armor"
            },
            {
                "shortName": "enr",
                "value": 122,
                "type": "armor"
            }
        ],
        "type": "belts",
        "name": "Heavy Energy Protection Belt",
        "tl": 84
    },
    {
        "requirements": [
            {
                "shortName": "str",
                "value": 41
            }
        ],
        "modifiers": [
            {
                "shortName": "for",
                "value": 36,
                "type": "armor"
            },
            {
                "shortName": "fir",
                "value": 79,
                "type": "armor"
            }
        ],
        "type": "belts",
        "name": "Light Fire Protection Belt ",
        "tl": 41
    },
    {
        "requirements": [
            {
                "shortName": "str",
                "value": 61
            }
        ],
        "modifiers": [
            {
                "shortName": "for",
                "value": 45,
                "type": "armor"
            },
            {
                "shortName": "fir",
                "value": 99,
                "type": "armor"
            }
        ],
        "type": "belts",
        "name": "Medium Fire Protection Belt",
        "tl": 61
    },
    {
        "requirements": [
            {
                "shortName": "str",
                "value": 81
            }
        ],
        "modifiers": [
            {
                "shortName": "for",
                "value": 53,
                "type": "armor"
            },
            {
                "shortName": "fir",
                "value": 119,
                "type": "armor"
            }
        ],
        "type": "belts",
        "name": "Heavy Fire Protection Belt",
        "tl": 81
    },
    {
        "requirements": [
            {
                "shortName": "str",
                "value": 45
            }
        ],
        "modifiers": [
            {
                "shortName": "for",
                "value": 38,
                "type": "armor"
            },
            {
                "shortName": "por",
                "value": 83,
                "type": "armor"
            }
        ],
        "type": "belts",
        "name": "Light Poison Protection Belt ",
        "tl": 45
    },
    {
        "requirements": [
            {
                "shortName": "str",
                "value": 85
            }
        ],
        "modifiers": [
            {
                "shortName": "for",
                "value": 55,
                "type": "armor"
            },
            {
                "shortName": "por",
                "value": 123,
                "type": "armor"
            }
        ],
        "type": "belts",
        "name": "Heavy Poison Protection Belt",
        "tl": 85
    },
    {
        "requirements": [
            {
                "shortName": "psi",
                "value": 12
            }
        ],
        "modifiers": [
            {
                "shortName": "for",
                "value": 17,
                "type": "armor"
            },
            {
                "shortName": "prc",
                "value": 17,
                "type": "armor"
            },
            {
                "shortName": "fir",
                "value": 17,
                "type": "armor"
            },
            {
                "shortName": "enr",
                "value": 30,
                "type": "armor"
            }
        ],
        "type": "belts",
        "name": "Crahn Shelter Belt",
        "tl": 12
    },
    {
        "requirements": [
            {
                "shortName": "psi",
                "value": 34
            }
        ],
        "modifiers": [
            {
                "shortName": "for",
                "value": 23,
                "type": "armor"
            },
            {
                "shortName": "prc",
                "value": 23,
                "type": "armor"
            },
            {
                "shortName": "fir",
                "value": 23,
                "type": "armor"
            },
            {
                "shortName": "enr",
                "value": 42,
                "type": "armor"
            }
        ],
        "type": "belts",
        "name": "Crahn Blessed Shelter Belt",
        "tl": 34
    },
    {
        "requirements": [
            {
                "shortName": "psi",
                "value": 58
            }
        ],
        "modifiers": [
            {
                "shortName": "for",
                "value": 29,
                "type": "armor"
            },
            {
                "shortName": "prc",
                "value": 29,
                "type": "armor"
            },
            {
                "shortName": "enr",
                "value": 55,
                "type": "armor"
            },
            {
                "shortName": "xra",
                "value": 29,
                "type": "armor"
            },
            {
                "shortName": "fir",
                "value": 16,
                "type": "armor"
            }
        ],
        "type": "belts",
        "name": "Crahn Spirit Belt",
        "tl": 58
    },
    {
        "requirements": [
            {
                "shortName": "psi",
                "value": 84
            }
        ],
        "modifiers": [
            {
                "shortName": "for",
                "value": 37,
                "type": "armor"
            },
            {
                "shortName": "prc",
                "value": 37,
                "type": "armor"
            },
            {
                "shortName": "enr",
                "value": 69,
                "type": "armor"
            },
            {
                "shortName": "xra",
                "value": 37,
                "type": "armor"
            },
            {
                "shortName": "fir",
                "value": 21,
                "type": "armor"
            }
        ],
        "type": "belts",
        "name": "Crahn Blessed Spirit Belt",
        "tl": 84
    }
]