{
    "deny": [],
    "granted": [
        {
            "name": "Rifles",
            "path": "weapons\/rifles",
            "granted": true
        },
        {
            "name": "Helmets",
            "path": "armor\/helmets",
            "granted": true
        },
        {
            "name": "Brain implants",
            "path": "implants\/brain",
            "granted": true
        },
        {
            "name": "Drugs",
            "path": "drugs\/drugs",
            "granted": true
        },
        {
            "name": "Lowtech Pistol",
            "path": "weapons\/pistols\/lowtech",
            "granted": true
        },
        {
            "name": "Lowtech Rifle",
            "path": "weapons\/rifles\/lowtech",
            "granted": true
        },
        {
            "name": "Lowtech Heavy Weapon",
            "path": "weapons\/heavy\/lowtech",
            "granted": true
        },
        {
            "name": "Lowtech Melee Weapon",
            "path": "weapons\/melee\/lowtech",
            "granted": true
        },
        {
            "name": "Head Enforcement",
            "path": "implants\/bones\/head",
            "granted": true
        },
        {
            "name": "Gloves",
            "path": "tradeskiller\/gloves",
            "granted": true
        },
        {
            "name": "PSI Combat Gloves",
            "path": "combat-tools\/combat",
            "granted": true
        },
        {
            "name": "Pistols",
            "path": "weapons\/pistols",
            "granted": true
        },
        {
            "name": "Eye implants",
            "path": "implants\/eyes",
            "granted": true
        },
        {
            "name": "Neck armour",
            "path": "armor\/neck",
            "granted": true
        },
        {
            "name": "Chest Enforcement",
            "path": "implants\/bones\/chest",
            "granted": true
        },
        {
            "name": "Hightech Pistol",
            "path": "weapons\/pistols\/hightech",
            "granted": true
        },
        {
            "name": "Hightech Rifle",
            "path": "weapons\/rifles\/hightech",
            "granted": true
        },
        {
            "name": "Hightech Heavy Weapon",
            "path": "weapons\/heavy\/hightech",
            "granted": true
        },
        {
            "name": "Hightech Melee Weapon",
            "path": "weapons\/melee\/hightech",
            "granted": true
        },
        {
            "name": "Heavy weapons",
            "path": "weapons\/heavy",
            "granted": true
        },
        {
            "name": "Vests",
            "path": "armor\/vests",
            "granted": true
        },
        {
            "name": "Hearts",
            "path": "implants\/hearts",
            "granted": true
        },
        {
            "name": "Arm Enforcement",
            "path": "implants\/bones\/arm",
            "granted": true
        },
        {
            "name": "Melee weapons",
            "path": "weapons\/melee",
            "granted": true
        },
        {
            "name": "Belts",
            "path": "armor\/belts",
            "granted": true
        },
        {
            "name": "Backbones",
            "path": "implants\/backbones",
            "granted": true
        },
        {
            "name": "Leg Enforcement",
            "path": "implants\/bones\/leg",
            "granted": true
        },
        {
            "name": "Pants",
            "path": "armor\/pants",
            "granted": true
        },
        {
            "name": "Bones",
            "path": "implants\/bones",
            "granted": true
        },
        {
            "name": "APU PSI modules",
            "path": "weapons\/apu",
            "granted": true
        },
        {
            "name": "Foot Enforcement",
            "path": "implants\/bones\/foot",
            "granted": true
        },
        {
            "name": "Boots",
            "path": "armor\/boots",
            "granted": true
        },
        {
            "name": "PPU PSI modules",
            "path": "weapons\/ppu",
            "granted": true
        },
        {
            "name": "Drones",
            "path": "weapons\/drones",
            "granted": true
        },
        {
            "name": "Body underwear",
            "path": "armor\/underwear",
            "granted": true
        },
        {
            "name": "Hacknet software",
            "path": "weapons\/hacknet",
            "granted": true
        },
        {
            "name": "Power Armor",
            "path": "armor\/power-armor",
            "granted": true
        },
        {
            "name": "Holo-vests",
            "path": "armor\/holo-vests",
            "granted": true
        }
    ]
}